{
  "metadata": {
    "asset_type": "connection",
    "name": "Amazon RDS for PostgreSQL - Shared",
    "origin_country": "us",
    "rov": {
      "mode": 0
    },
    "asset_category": "USER",
    "created_at": "2021-09-27T15:32:57Z",
    "created": 1632756777385,
    "asset_id": "connection.AmazonRDSforPostgreSQLShared",
    "asset_attributes": [
      "connection"
    ]
  },
  "entity": {
    "connection": {
      "datasource_type": "9493d830-882b-445e-96c7-8e4c635a1a5b",
      "context": "source,target",
      "flags": [],
      "ref_catalog_id": "be1ed22f-bdb8-45c0-9c62-65f6ff05dc50",
      "ref_asset_id": "8540bbf2-953a-432a-9b90-4a6ab36ea17c"
    }
  },
  "attachments": []
}